docs/rwb_transcript.txt
# ** Note: (vsim-8009) Loading existing optimized design _opt
# Loading work.test_rwb(fast)
# Simulation starting...
# 
#                    5CONTROL SIGNALS = rst 1 - clr 0 - ld 0 - shl 0
# 	DATA SIGNALS = PARALLEL LOAD: 00000000 -- SERIAL IN: 0 -- DATA OUT: 00000000
# 
# Walking a 1 across the register.
# 
#                   15CONTROL SIGNALS = rst 0 - clr 0 - ld 0 - shl 1
# 	DATA SIGNALS = PARALLEL LOAD: 00000000 -- SERIAL IN: 1 -- DATA OUT: 00000001
# 
#                   25CONTROL SIGNALS = rst 0 - clr 0 - ld 0 - shl 1
# 	DATA SIGNALS = PARALLEL LOAD: 00000000 -- SERIAL IN: 0 -- DATA OUT: 00000010
# 
#                   35CONTROL SIGNALS = rst 0 - clr 0 - ld 0 - shl 1
# 	DATA SIGNALS = PARALLEL LOAD: 00000000 -- SERIAL IN: 0 -- DATA OUT: 00000100
# 
#                   45CONTROL SIGNALS = rst 0 - clr 0 - ld 0 - shl 1
# 	DATA SIGNALS = PARALLEL LOAD: 00000000 -- SERIAL IN: 0 -- DATA OUT: 00001000
# 
#                   55CONTROL SIGNALS = rst 0 - clr 0 - ld 0 - shl 1
# 	DATA SIGNALS = PARALLEL LOAD: 00000000 -- SERIAL IN: 0 -- DATA OUT: 00010000
# 
#                   65CONTROL SIGNALS = rst 0 - clr 0 - ld 0 - shl 1
# 	DATA SIGNALS = PARALLEL LOAD: 00000000 -- SERIAL IN: 0 -- DATA OUT: 00100000
# 
#                   75CONTROL SIGNALS = rst 0 - clr 0 - ld 0 - shl 1
# 	DATA SIGNALS = PARALLEL LOAD: 00000000 -- SERIAL IN: 0 -- DATA OUT: 01000000
# 
#                   85CONTROL SIGNALS = rst 0 - clr 0 - ld 0 - shl 1
# 	DATA SIGNALS = PARALLEL LOAD: 00000000 -- SERIAL IN: 0 -- DATA OUT: 10000000
# 
#                   95CONTROL SIGNALS = rst 0 - clr 0 - ld 0 - shl 1
# 	DATA SIGNALS = PARALLEL LOAD: 00000000 -- SERIAL IN: 0 -- DATA OUT: 00000000
# 
# Asserting clr..
# 
#                  105CONTROL SIGNALS = rst 0 - clr 0 - ld 0 - shl 0
# 	DATA SIGNALS = PARALLEL LOAD: 00000000 -- SERIAL IN: 0 -- DATA OUT: 00000000
# 
#                  115CONTROL SIGNALS = rst 0 - clr 0 - ld 0 - shl 0
# 	DATA SIGNALS = PARALLEL LOAD: 00000000 -- SERIAL IN: 0 -- DATA OUT: 00000000
# 
#                  125CONTROL SIGNALS = rst 0 - clr 0 - ld 0 - shl 0
# 	DATA SIGNALS = PARALLEL LOAD: 00000000 -- SERIAL IN: 0 -- DATA OUT: 00000000
# 
#                  135CONTROL SIGNALS = rst 0 - clr 0 - ld 0 - shl 0
# 	DATA SIGNALS = PARALLEL LOAD: 00000000 -- SERIAL IN: 0 -- DATA OUT: 00000000
# 
#                  145CONTROL SIGNALS = rst 0 - clr 0 - ld 0 - shl 0
# 	DATA SIGNALS = PARALLEL LOAD: 00000000 -- SERIAL IN: 0 -- DATA OUT: 00000000
# 
#                  155CONTROL SIGNALS = rst 0 - clr 0 - ld 0 - shl 0
# 	DATA SIGNALS = PARALLEL LOAD: 00000000 -- SERIAL IN: 0 -- DATA OUT: 00000000
# 
#                  165CONTROL SIGNALS = rst 0 - clr 0 - ld 0 - shl 0
# 	DATA SIGNALS = PARALLEL LOAD: 00000000 -- SERIAL IN: 0 -- DATA OUT: 00000000
# 
#                  175CONTROL SIGNALS = rst 0 - clr 0 - ld 0 - shl 0
# 	DATA SIGNALS = PARALLEL LOAD: 00000000 -- SERIAL IN: 0 -- DATA OUT: 00000000
# 
#                  185CONTROL SIGNALS = rst 0 - clr 0 - ld 0 - shl 0
# 	DATA SIGNALS = PARALLEL LOAD: 00000000 -- SERIAL IN: 0 -- DATA OUT: 00000000
# 
#                  195CONTROL SIGNALS = rst 0 - clr 0 - ld 0 - shl 0
# 	DATA SIGNALS = PARALLEL LOAD: 00000000 -- SERIAL IN: 0 -- DATA OUT: 00000000
# 
#                  205CONTROL SIGNALS = rst 0 - clr 1 - ld 0 - shl 0
# 	DATA SIGNALS = PARALLEL LOAD: 00000000 -- SERIAL IN: 0 -- DATA OUT: 00000000
# 
#                  215CONTROL SIGNALS = rst 0 - clr 1 - ld 0 - shl 0
# 	DATA SIGNALS = PARALLEL LOAD: 00000000 -- SERIAL IN: 0 -- DATA OUT: 00000000
# 
#                  225CONTROL SIGNALS = rst 0 - clr 0 - ld 0 - shl 0
# 	DATA SIGNALS = PARALLEL LOAD: 00000000 -- SERIAL IN: 0 -- DATA OUT: 00000000
# 
#                  235CONTROL SIGNALS = rst 0 - clr 0 - ld 0 - shl 0
# 	DATA SIGNALS = PARALLEL LOAD: 00000000 -- SERIAL IN: 0 -- DATA OUT: 00000000
# 
# Loading 0xAA
# 
#                  245CONTROL SIGNALS = rst 0 - clr 0 - ld 1 - shl 0
# 	DATA SIGNALS = PARALLEL LOAD: 10101010 -- SERIAL IN: 0 -- DATA OUT: 10101010
# 
#                  255CONTROL SIGNALS = rst 0 - clr 0 - ld 0 - shl 0
# 	DATA SIGNALS = PARALLEL LOAD: 10101010 -- SERIAL IN: 0 -- DATA OUT: 10101010
# 
#                  265CONTROL SIGNALS = rst 0 - clr 0 - ld 0 - shl 0
# 	DATA SIGNALS = PARALLEL LOAD: 10101010 -- SERIAL IN: 0 -- DATA OUT: 10101010
# 
#                  275CONTROL SIGNALS = rst 0 - clr 0 - ld 0 - shl 0
# 	DATA SIGNALS = PARALLEL LOAD: 10101010 -- SERIAL IN: 0 -- DATA OUT: 10101010
# 
#                  285CONTROL SIGNALS = rst 0 - clr 0 - ld 0 - shl 0
# 	DATA SIGNALS = PARALLEL LOAD: 10101010 -- SERIAL IN: 0 -- DATA OUT: 10101010
# 
#                  295CONTROL SIGNALS = rst 0 - clr 0 - ld 0 - shl 0
# 	DATA SIGNALS = PARALLEL LOAD: 10101010 -- SERIAL IN: 0 -- DATA OUT: 10101010
# 
# Shifting it out... loading nothing in.
# 
#                  305CONTROL SIGNALS = rst 0 - clr 0 - ld 0 - shl 1
# 	DATA SIGNALS = PARALLEL LOAD: 10101010 -- SERIAL IN: 0 -- DATA OUT: 01010100
# 
#                  315CONTROL SIGNALS = rst 0 - clr 0 - ld 0 - shl 1
# 	DATA SIGNALS = PARALLEL LOAD: 10101010 -- SERIAL IN: 0 -- DATA OUT: 10101000
# 
#                  325CONTROL SIGNALS = rst 0 - clr 0 - ld 0 - shl 1
# 	DATA SIGNALS = PARALLEL LOAD: 10101010 -- SERIAL IN: 0 -- DATA OUT: 01010000
# 
#                  335CONTROL SIGNALS = rst 0 - clr 0 - ld 0 - shl 1
# 	DATA SIGNALS = PARALLEL LOAD: 10101010 -- SERIAL IN: 0 -- DATA OUT: 10100000
# 
#                  345CONTROL SIGNALS = rst 0 - clr 0 - ld 0 - shl 1
# 	DATA SIGNALS = PARALLEL LOAD: 10101010 -- SERIAL IN: 0 -- DATA OUT: 01000000
# 
#                  355CONTROL SIGNALS = rst 0 - clr 0 - ld 0 - shl 1
# 	DATA SIGNALS = PARALLEL LOAD: 10101010 -- SERIAL IN: 0 -- DATA OUT: 10000000
# 
#                  365CONTROL SIGNALS = rst 0 - clr 0 - ld 0 - shl 1
# 	DATA SIGNALS = PARALLEL LOAD: 10101010 -- SERIAL IN: 0 -- DATA OUT: 00000000
# 
#                  375CONTROL SIGNALS = rst 0 - clr 0 - ld 0 - shl 0
# 	DATA SIGNALS = PARALLEL LOAD: 10101010 -- SERIAL IN: 0 -- DATA OUT: 00000000
# 
# Asserting all the things so we can see that reset takes precedence.
# 
#                  385CONTROL SIGNALS = rst 1 - clr 1 - ld 1 - shl 1
# 	DATA SIGNALS = PARALLEL LOAD: 11111111 -- SERIAL IN: 0 -- DATA OUT: 00000000
# 
#                  395CONTROL SIGNALS = rst 1 - clr 1 - ld 1 - shl 1
# 	DATA SIGNALS = PARALLEL LOAD: 11111111 -- SERIAL IN: 0 -- DATA OUT: 00000000
# 
#                  405CONTROL SIGNALS = rst 1 - clr 1 - ld 1 - shl 1
# 	DATA SIGNALS = PARALLEL LOAD: 11111111 -- SERIAL IN: 0 -- DATA OUT: 00000000
# 
#                  415CONTROL SIGNALS = rst 1 - clr 1 - ld 1 - shl 1
# 	DATA SIGNALS = PARALLEL LOAD: 11111111 -- SERIAL IN: 0 -- DATA OUT: 00000000
# 
#                  425CONTROL SIGNALS = rst 1 - clr 1 - ld 1 - shl 1
# 	DATA SIGNALS = PARALLEL LOAD: 11111111 -- SERIAL IN: 0 -- DATA OUT: 00000000
# 
#                  435CONTROL SIGNALS = rst 1 - clr 1 - ld 1 - shl 1
# 	DATA SIGNALS = PARALLEL LOAD: 11111111 -- SERIAL IN: 0 -- DATA OUT: 00000000
# 
#                  445CONTROL SIGNALS = rst 1 - clr 1 - ld 1 - shl 1
# 	DATA SIGNALS = PARALLEL LOAD: 11111111 -- SERIAL IN: 0 -- DATA OUT: 00000000
# 
#                  455CONTROL SIGNALS = rst 1 - clr 1 - ld 1 - shl 1
# 	DATA SIGNALS = PARALLEL LOAD: 11111111 -- SERIAL IN: 0 -- DATA OUT: 00000000
# 
#                  465CONTROL SIGNALS = rst 1 - clr 1 - ld 1 - shl 1
# 	DATA SIGNALS = PARALLEL LOAD: 11111111 -- SERIAL IN: 0 -- DATA OUT: 00000000
# 
#                  475CONTROL SIGNALS = rst 1 - clr 1 - ld 1 - shl 1
# 	DATA SIGNALS = PARALLEL LOAD: 11111111 -- SERIAL IN: 0 -- DATA OUT: 00000000
# 
# ** Note: $stop    : /u/rseth/ece571_rwb/tb_rwb.sv(81)
#    Time: 480 ns  Iteration: 0  Instance: /test_rwb
# Break at /u/rseth/ece571_rwb/tb_rwb.sv line 81
